﻿<?xml version="1.0" encoding="utf-8"?>
<!--
    This file is automatically generated by Visual Studio .Net. It is 
    used to store generic object data source configuration information.  
    Renaming the file extension or editing the content of this file may   
    cause the file to be unrecognizable by the program.
-->
<GenericObjectDataSource DisplayName="GetCategoryMappingsResponseType" Version="1.0" xmlns="urn:schemas-microsoft-com:xml-msdatasource">
   <TypeInfo>GeteBayOfficialTime.com.ebay.developer.GetCategoryMappingsResponseType, Web References.com.ebay.developer.Reference.cs, Version=0.0.0.0, Culture=neutral, PublicKeyToken=null</TypeInfo>
</GenericObjectDataSource>